{
  "enablePullDownRefresh": true,
  "navigationBarTitleText": "业务报单",
  "usingComponents": {
    "van-toast": "../Vant/toast/index",
    "van-tab": "../Vant/tab/index",
    "van-tabs": "../Vant/tabs/index",
    "van-action-sheet": "../Vant/action-sheet/index",
    "i-load-more": "../iView/load-more/index"
  }
}